…
```r
food_reviews <- tidy(food_lda, matrix = 'gamma')
food_reviews <- food_reviews |>
  pivot_wider(
    id_cols = document,
    names_from = topic,
    names_prefix = 'topic_',
    values_from = 'gamma'
  )
```

```
# A tibble: 24,999 × 7
   document topic_1 topic_2 topic_3 topic_4 topic_5 topic_6
   <chr>      <dbl>   <dbl>   <dbl>   <dbl>   <dbl>   <dbl>
 1 2          0.169   0.167   0.165   0.167   0.166   0.166
 2 46         0.166   0.166   0.166   0.167   0.169   0.167
 3 52         0.167   0.172   0.164   0.165   0.166   0.165
 4 71         0.165   0.165   0.166   0.173   0.163   0.167
 5 87         0.166   0.161   0.168   0.184   0.160   0.162
 6 94         0.161   0.164   0.174   0.187   0.154   0.159
 7 157        0.171   0.164   0.165   0.166   0.165   0.169
 8 196        0.171   0.165   0.161   0.164   0.178   0.160
 9 202        0.168   0.163   0.168   0.171   0.163   0.167
10 239        0.166   0.160   0.166   0.160   0.171   0.177
# ℹ 24,989 more rows
…
